<svg width="183" height="109" viewBox="0 0 183 109" fill="none" xmlns="http://www.w3.org/2000/svg">
<path d="M48 0H124.267V64.8267H48V0Z" fill="#BBDEFB"/>
<path d="M57.5332 9.53345H114.733V19.0668H57.5332V9.53345Z" fill="#3F51B5"/>
<path d="M57.5332 26.6934H82.3199V57.2H57.5332V26.6934ZM89.9465 26.6934H114.733V57.2H89.9465V26.6934Z" fill="#2196F3"/>
<path d="M109.967 57.2005L108.061 68.64L125.221 66.7343L126.174 51.481L109.967 57.2005Z" fill="white"/>
<path d="M108.75 68.9541L104.284 67.1965C103.911 67.0499 103.512 66.9802 103.112 66.9917C102.711 67.0031 102.317 67.0955 101.953 67.2632C101.589 67.4309 101.263 67.6705 100.994 67.9675C100.726 68.2646 100.52 68.6129 100.389 68.9917C100.148 69.6884 100.174 70.4499 100.463 71.1282C100.752 71.8065 101.283 72.3531 101.953 72.6617L116.998 79.5907C117.957 80.0305 119.052 80.0566 120.029 79.6596L128.214 76.3326C132.454 74.6096 133.844 69.9282 132.408 66.3955L126.255 51.2563" fill="white"/>
<path d="M108.75 68.9541L104.284 67.1965C103.911 67.0499 103.512 66.9802 103.112 66.9917C102.711 67.0031 102.317 67.0955 101.953 67.2632C101.589 67.4309 101.263 67.6705 100.994 67.9675C100.726 68.2646 100.52 68.6129 100.389 68.9917C100.148 69.6884 100.174 70.4499 100.463 71.1282C100.752 71.8065 101.283 72.3531 101.953 72.6617L116.998 79.5907C117.957 80.0305 119.052 80.0566 120.029 79.6596L128.214 76.3326C132.454 74.6096 133.844 69.9282 132.408 66.3955L126.255 51.2563" stroke="black" stroke-width="2.86" stroke-linecap="round" stroke-linejoin="round"/>
<path d="M121.367 54.419L120.957 53.4104C119.316 49.3725 124.615 47.2187 126.256 51.2566M116.068 56.5728L114.838 53.5453C113.196 49.5074 118.495 47.3536 120.137 51.3915L121.367 54.419M110.769 58.7266L108.974 54.3108C107.333 50.2729 112.632 48.1191 114.273 52.157L116.068 56.5728M108.752 68.9544L100.803 49.3993C100.518 48.6966 100.523 47.9092 100.818 47.2104C101.113 46.5115 101.673 45.9585 102.376 45.6728C103.839 45.0784 105.507 45.7794 106.102 47.2437L110.769 58.7266" fill="white"/>
<path d="M126.256 51.2566C124.615 47.2187 119.316 49.3725 120.957 53.4104L121.367 54.419L120.137 51.3915C118.495 47.3536 113.196 49.5074 114.838 53.5453L116.068 56.5728L114.273 52.157C112.632 48.1191 107.333 50.2729 108.974 54.3108L110.769 58.7266L106.102 47.2437C105.507 45.7794 103.839 45.0784 102.376 45.6728C101.673 45.9585 101.113 46.5115 100.818 47.2104C100.523 47.9092 100.518 48.6966 100.803 49.3993L108.752 68.9544" stroke="black" stroke-width="2.86" stroke-linecap="round" stroke-linejoin="round"/>
<path d="M1.17238 97.416C1.17238 96.328 1.41771 95.352 1.90838 94.488C2.39904 93.6133 3.06571 92.9307 3.90838 92.44C4.76171 91.9493 5.70571 91.704 6.74038 91.704C7.95638 91.704 9.01771 91.9973 9.92438 92.584C10.831 93.1707 11.4924 94.0027 11.9084 95.08H10.1644C9.85504 94.408 9.40704 93.8907 8.82038 93.528C8.24438 93.1653 7.55104 92.984 6.74038 92.984C5.96171 92.984 5.26304 93.1653 4.64438 93.528C4.02571 93.8907 3.54038 94.408 3.18838 95.08C2.83638 95.7413 2.66038 96.52 2.66038 97.416C2.66038 98.3013 2.83638 99.08 3.18838 99.752C3.54038 100.413 4.02571 100.925 4.64438 101.288C5.26304 101.651 5.96171 101.832 6.74038 101.832C7.55104 101.832 8.24438 101.656 8.82038 101.304C9.40704 100.941 9.85504 100.424 10.1644 99.752H11.9084C11.4924 100.819 10.831 101.645 9.92438 102.232C9.01771 102.808 7.95638 103.096 6.74038 103.096C5.70571 103.096 4.76171 102.856 3.90838 102.376C3.06571 101.885 2.39904 101.208 1.90838 100.344C1.41771 99.48 1.17238 98.504 1.17238 97.416ZM18.4278 94.072C19.0891 94.072 19.6864 94.216 20.2198 94.504C20.7531 94.7813 21.1691 95.2027 21.4678 95.768C21.7771 96.3333 21.9318 97.0213 21.9318 97.832V103H20.4918V98.04C20.4918 97.1653 20.2731 96.4987 19.8358 96.04C19.3984 95.5707 18.8011 95.336 18.0438 95.336C17.2758 95.336 16.6624 95.576 16.2038 96.056C15.7558 96.536 15.5318 97.2347 15.5318 98.152V103H14.0758V91.16H15.5318V95.48C15.8198 95.032 16.2144 94.6853 16.7158 94.44C17.2278 94.1947 17.7984 94.072 18.4278 94.072ZM28.1341 103.144C27.3128 103.144 26.5661 102.957 25.8941 102.584C25.2328 102.211 24.7101 101.683 24.3261 101C23.9528 100.307 23.7661 99.5067 23.7661 98.6C23.7661 97.704 23.9581 96.9147 24.3421 96.232C24.7368 95.5387 25.2701 95.0107 25.9421 94.648C26.6141 94.2747 27.3661 94.088 28.1981 94.088C29.0301 94.088 29.7821 94.2747 30.4541 94.648C31.1261 95.0107 31.6541 95.5333 32.0381 96.216C32.4328 96.8987 32.6301 97.6933 32.6301 98.6C32.6301 99.5067 32.4275 100.307 32.0221 101C31.6275 101.683 31.0888 102.211 30.4061 102.584C29.7235 102.957 28.9661 103.144 28.1341 103.144ZM28.1341 101.864C28.6568 101.864 29.1475 101.741 29.6061 101.496C30.0648 101.251 30.4328 100.883 30.7101 100.392C30.9981 99.9013 31.1421 99.304 31.1421 98.6C31.1421 97.896 31.0035 97.2987 30.7261 96.808C30.4488 96.3173 30.0861 95.9547 29.6381 95.72C29.1901 95.4747 28.7048 95.352 28.1821 95.352C27.6488 95.352 27.1581 95.4747 26.7101 95.72C26.2728 95.9547 25.9208 96.3173 25.6541 96.808C25.3875 97.2987 25.2541 97.896 25.2541 98.6C25.2541 99.3147 25.3821 99.9173 25.6381 100.408C25.9048 100.899 26.2568 101.267 26.6941 101.512C27.1315 101.747 27.6115 101.864 28.1341 101.864ZM38.3685 103.144C37.5472 103.144 36.8005 102.957 36.1285 102.584C35.4672 102.211 34.9445 101.683 34.5605 101C34.1872 100.307 34.0005 99.5067 34.0005 98.6C34.0005 97.704 34.1925 96.9147 34.5765 96.232C34.9712 95.5387 35.5045 95.0107 36.1765 94.648C36.8485 94.2747 37.6005 94.088 38.4325 94.088C39.2645 94.088 40.0165 94.2747 40.6885 94.648C41.3605 95.0107 41.8885 95.5333 42.2725 96.216C42.6672 96.8987 42.8645 97.6933 42.8645 98.6C42.8645 99.5067 42.6618 100.307 42.2565 101C41.8618 101.683 41.3232 102.211 40.6405 102.584C39.9578 102.957 39.2005 103.144 38.3685 103.144ZM38.3685 101.864C38.8912 101.864 39.3818 101.741 39.8405 101.496C40.2992 101.251 40.6672 100.883 40.9445 100.392C41.2325 99.9013 41.3765 99.304 41.3765 98.6C41.3765 97.896 41.2378 97.2987 40.9605 96.808C40.6832 96.3173 40.3205 95.9547 39.8725 95.72C39.4245 95.4747 38.9392 95.352 38.4165 95.352C37.8832 95.352 37.3925 95.4747 36.9445 95.72C36.5072 95.9547 36.1552 96.3173 35.8885 96.808C35.6218 97.2987 35.4885 97.896 35.4885 98.6C35.4885 99.3147 35.6165 99.9173 35.8725 100.408C36.1392 100.899 36.4912 101.267 36.9285 101.512C37.3658 101.747 37.8458 101.864 38.3685 101.864ZM47.8829 103.144C47.2109 103.144 46.6082 103.032 46.0749 102.808C45.5415 102.573 45.1202 102.253 44.8109 101.848C44.5015 101.432 44.3309 100.957 44.2989 100.424H45.8029C45.8455 100.861 46.0482 101.219 46.4109 101.496C46.7842 101.773 47.2695 101.912 47.8669 101.912C48.4215 101.912 48.8589 101.789 49.1789 101.544C49.4989 101.299 49.6589 100.989 49.6589 100.616C49.6589 100.232 49.4882 99.9493 49.1469 99.768C48.8055 99.576 48.2775 99.3893 47.5629 99.208C46.9122 99.0373 46.3789 98.8667 45.9629 98.696C45.5575 98.5147 45.2055 98.2533 44.9069 97.912C44.6189 97.56 44.4749 97.1013 44.4749 96.536C44.4749 96.088 44.6082 95.6773 44.8749 95.304C45.1415 94.9307 45.5202 94.6373 46.0109 94.424C46.5015 94.2 47.0615 94.088 47.6909 94.088C48.6615 94.088 49.4455 94.3333 50.0429 94.824C50.6402 95.3147 50.9602 95.9867 51.0029 96.84H49.5469C49.5149 96.3813 49.3282 96.0133 48.9869 95.736C48.6562 95.4587 48.2082 95.32 47.6429 95.32C47.1202 95.32 46.7042 95.432 46.3949 95.656C46.0855 95.88 45.9309 96.1733 45.9309 96.536C45.9309 96.824 46.0215 97.064 46.2029 97.256C46.3949 97.4373 46.6295 97.5867 46.9069 97.704C47.1949 97.8107 47.5895 97.9333 48.0909 98.072C48.7202 98.2427 49.2322 98.4133 49.6269 98.584C50.0215 98.744 50.3575 98.9893 50.6349 99.32C50.9229 99.6507 51.0722 100.083 51.0829 100.616C51.0829 101.096 50.9495 101.528 50.6829 101.912C50.4162 102.296 50.0375 102.6 49.5469 102.824C49.0669 103.037 48.5122 103.144 47.8829 103.144ZM61.1383 98.28C61.1383 98.5573 61.1223 98.8507 61.0903 99.16H54.0823C54.1356 100.024 54.4289 100.701 54.9623 101.192C55.5063 101.672 56.1623 101.912 56.9303 101.912C57.5596 101.912 58.0823 101.768 58.4983 101.48C58.9249 101.181 59.2236 100.787 59.3943 100.296H60.9623C60.7276 101.139 60.2583 101.827 59.5543 102.36C58.8503 102.883 57.9756 103.144 56.9303 103.144C56.0983 103.144 55.3516 102.957 54.6903 102.584C54.0396 102.211 53.5276 101.683 53.1543 101C52.7809 100.307 52.5943 99.5067 52.5943 98.6C52.5943 97.6933 52.7756 96.8987 53.1383 96.216C53.5009 95.5333 54.0076 95.0107 54.6583 94.648C55.3196 94.2747 56.0769 94.088 56.9303 94.088C57.7623 94.088 58.4983 94.2693 59.1383 94.632C59.7783 94.9947 60.2689 95.496 60.6103 96.136C60.9623 96.7653 61.1383 97.48 61.1383 98.28ZM59.6343 97.976C59.6343 97.4213 59.5116 96.9467 59.2663 96.552C59.0209 96.1467 58.6849 95.8427 58.2583 95.64C57.8423 95.4267 57.3783 95.32 56.8663 95.32C56.1303 95.32 55.5009 95.5547 54.9783 96.024C54.4663 96.4933 54.1729 97.144 54.0983 97.976H59.6343ZM75.1337 91.848L71.5018 98.792V103H70.0458V98.792L66.3978 91.848H68.0138L70.7658 97.496L73.5178 91.848H75.1337ZM80.4935 103.144C79.6722 103.144 78.9255 102.957 78.2535 102.584C77.5922 102.211 77.0695 101.683 76.6855 101C76.3122 100.307 76.1255 99.5067 76.1255 98.6C76.1255 97.704 76.3175 96.9147 76.7015 96.232C77.0962 95.5387 77.6295 95.0107 78.3015 94.648C78.9735 94.2747 79.7255 94.088 80.5575 94.088C81.3895 94.088 82.1415 94.2747 82.8135 94.648C83.4855 95.0107 84.0135 95.5333 84.3975 96.216C84.7922 96.8987 84.9895 97.6933 84.9895 98.6C84.9895 99.5067 84.7868 100.307 84.3815 101C83.9868 101.683 83.4482 102.211 82.7655 102.584C82.0828 102.957 81.3255 103.144 80.4935 103.144ZM80.4935 101.864C81.0162 101.864 81.5068 101.741 81.9655 101.496C82.4242 101.251 82.7922 100.883 83.0695 100.392C83.3575 99.9013 83.5015 99.304 83.5015 98.6C83.5015 97.896 83.3628 97.2987 83.0855 96.808C82.8082 96.3173 82.4455 95.9547 81.9975 95.72C81.5495 95.4747 81.0642 95.352 80.5415 95.352C80.0082 95.352 79.5175 95.4747 79.0695 95.72C78.6322 95.9547 78.2802 96.3173 78.0135 96.808C77.7468 97.2987 77.6135 97.896 77.6135 98.6C77.6135 99.3147 77.7415 99.9173 77.9975 100.408C78.2642 100.899 78.6162 101.267 79.0535 101.512C79.4908 101.747 79.9708 101.864 80.4935 101.864ZM94.6799 94.232V103H93.2239V101.704C92.9465 102.152 92.5572 102.504 92.0559 102.76C91.5652 103.005 91.0212 103.128 90.4239 103.128C89.7412 103.128 89.1279 102.989 88.5839 102.712C88.0399 102.424 87.6079 101.997 87.2879 101.432C86.9785 100.867 86.8239 100.179 86.8239 99.368V94.232H88.2639V99.176C88.2639 100.04 88.4825 100.707 88.9199 101.176C89.3572 101.635 89.9545 101.864 90.7119 101.864C91.4905 101.864 92.1039 101.624 92.5519 101.144C92.9999 100.664 93.2239 99.9653 93.2239 99.048V94.232H94.6799ZM98.5943 95.656C98.8503 95.1547 99.2129 94.7653 99.6823 94.488C100.162 94.2107 100.744 94.072 101.426 94.072V95.576H101.042C99.4103 95.576 98.5943 96.4613 98.5943 98.232V103H97.1383V94.232H98.5943V95.656ZM114.237 91.848V93.032H111.197V103H109.741V93.032H106.685V91.848H114.237ZM124.029 98.28C124.029 98.5573 124.013 98.8507 123.981 99.16H116.973C117.026 100.024 117.32 100.701 117.853 101.192C118.397 101.672 119.053 101.912 119.821 101.912C120.45 101.912 120.973 101.768 121.389 101.48C121.816 101.181 122.114 100.787 122.285 100.296H123.853C123.618 101.139 123.149 101.827 122.445 102.36C121.741 102.883 120.866 103.144 119.821 103.144C118.989 103.144 118.242 102.957 117.581 102.584C116.93 102.211 116.418 101.683 116.045 101C115.672 100.307 115.485 99.5067 115.485 98.6C115.485 97.6933 115.666 96.8987 116.029 96.216C116.392 95.5333 116.898 95.0107 117.549 94.648C118.21 94.2747 118.968 94.088 119.821 94.088C120.653 94.088 121.389 94.2693 122.029 94.632C122.669 94.9947 123.16 95.496 123.501 96.136C123.853 96.7653 124.029 97.48 124.029 98.28ZM122.525 97.976C122.525 97.4213 122.402 96.9467 122.157 96.552C121.912 96.1467 121.576 95.8427 121.149 95.64C120.733 95.4267 120.269 95.32 119.757 95.32C119.021 95.32 118.392 95.5547 117.869 96.024C117.357 96.4933 117.064 97.144 116.989 97.976H122.525ZM136.495 94.072C137.177 94.072 137.785 94.216 138.319 94.504C138.852 94.7813 139.273 95.2027 139.583 95.768C139.892 96.3333 140.047 97.0213 140.047 97.832V103H138.607V98.04C138.607 97.1653 138.388 96.4987 137.951 96.04C137.524 95.5707 136.943 95.336 136.207 95.336C135.449 95.336 134.847 95.5813 134.399 96.072C133.951 96.552 133.727 97.2507 133.727 98.168V103H132.287V98.04C132.287 97.1653 132.068 96.4987 131.631 96.04C131.204 95.5707 130.623 95.336 129.887 95.336C129.129 95.336 128.527 95.5813 128.079 96.072C127.631 96.552 127.407 97.2507 127.407 98.168V103H125.951V94.232H127.407V95.496C127.695 95.0373 128.079 94.6853 128.559 94.44C129.049 94.1947 129.588 94.072 130.175 94.072C130.911 94.072 131.561 94.2373 132.127 94.568C132.692 94.8987 133.113 95.384 133.391 96.024C133.636 95.4053 134.041 94.9253 134.607 94.584C135.172 94.2427 135.801 94.072 136.495 94.072ZM143.891 95.848C144.179 95.3467 144.606 94.9307 145.171 94.6C145.747 94.2587 146.414 94.088 147.171 94.088C147.95 94.088 148.654 94.2747 149.283 94.648C149.923 95.0213 150.424 95.5493 150.787 96.232C151.15 96.904 151.331 97.688 151.331 98.584C151.331 99.4693 151.15 100.259 150.787 100.952C150.424 101.645 149.923 102.184 149.283 102.568C148.654 102.952 147.95 103.144 147.171 103.144C146.424 103.144 145.763 102.979 145.187 102.648C144.622 102.307 144.19 101.885 143.891 101.384V107.16H142.435V94.232H143.891V95.848ZM149.843 98.584C149.843 97.9227 149.71 97.3467 149.443 96.856C149.176 96.3653 148.814 95.992 148.355 95.736C147.907 95.48 147.411 95.352 146.867 95.352C146.334 95.352 145.838 95.4853 145.379 95.752C144.931 96.008 144.568 96.3867 144.291 96.888C144.024 97.3787 143.891 97.9493 143.891 98.6C143.891 99.2613 144.024 99.8427 144.291 100.344C144.568 100.835 144.931 101.213 145.379 101.48C145.838 101.736 146.334 101.864 146.867 101.864C147.411 101.864 147.907 101.736 148.355 101.48C148.814 101.213 149.176 100.835 149.443 100.344C149.71 99.8427 149.843 99.256 149.843 98.584ZM154.704 91.16V103H153.248V91.16H154.704ZM156.641 98.584C156.641 97.688 156.822 96.904 157.185 96.232C157.548 95.5493 158.044 95.0213 158.673 94.648C159.313 94.2747 160.022 94.088 160.801 94.088C161.569 94.088 162.236 94.2533 162.801 94.584C163.366 94.9147 163.788 95.3307 164.065 95.832V94.232H165.537V103H164.065V101.368C163.777 101.88 163.345 102.307 162.769 102.648C162.204 102.979 161.542 103.144 160.785 103.144C160.006 103.144 159.302 102.952 158.673 102.568C158.044 102.184 157.548 101.645 157.185 100.952C156.822 100.259 156.641 99.4693 156.641 98.584ZM164.065 98.6C164.065 97.9387 163.932 97.3627 163.665 96.872C163.398 96.3813 163.036 96.008 162.577 95.752C162.129 95.4853 161.633 95.352 161.089 95.352C160.545 95.352 160.049 95.48 159.601 95.736C159.153 95.992 158.796 96.3653 158.529 96.856C158.262 97.3467 158.129 97.9227 158.129 98.584C158.129 99.256 158.262 99.8427 158.529 100.344C158.796 100.835 159.153 101.213 159.601 101.48C160.049 101.736 160.545 101.864 161.089 101.864C161.633 101.864 162.129 101.736 162.577 101.48C163.036 101.213 163.398 100.835 163.665 100.344C163.932 99.8427 164.065 99.2613 164.065 98.6ZM169.774 95.432V100.6C169.774 101.027 169.864 101.331 170.046 101.512C170.227 101.683 170.542 101.768 170.99 101.768H172.062V103H170.75C169.939 103 169.331 102.813 168.926 102.44C168.52 102.067 168.318 101.453 168.318 100.6V95.432H167.182V94.232H168.318V92.024H169.774V94.232H172.062V95.432H169.774ZM181.826 98.28C181.826 98.5573 181.81 98.8507 181.778 99.16H174.77C174.823 100.024 175.116 100.701 175.65 101.192C176.194 101.672 176.85 101.912 177.618 101.912C178.247 101.912 178.77 101.768 179.186 101.48C179.612 101.181 179.911 100.787 180.082 100.296H181.65C181.415 101.139 180.946 101.827 180.242 102.36C179.538 102.883 178.663 103.144 177.618 103.144C176.786 103.144 176.039 102.957 175.378 102.584C174.727 102.211 174.215 101.683 173.842 101C173.468 100.307 173.282 99.5067 173.282 98.6C173.282 97.6933 173.463 96.8987 173.826 96.216C174.188 95.5333 174.695 95.0107 175.346 94.648C176.007 94.2747 176.764 94.088 177.618 94.088C178.45 94.088 179.186 94.2693 179.826 94.632C180.466 94.9947 180.956 95.496 181.298 96.136C181.65 96.7653 181.826 97.48 181.826 98.28ZM180.322 97.976C180.322 97.4213 180.199 96.9467 179.954 96.552C179.708 96.1467 179.372 95.8427 178.946 95.64C178.53 95.4267 178.066 95.32 177.554 95.32C176.818 95.32 176.188 95.5547 175.666 96.024C175.154 96.4933 174.86 97.144 174.786 97.976H180.322Z" fill="#B6B6B6"/>
</svg>
