<svg width="44" height="44" viewBox="0 0 44 44" fill="none" xmlns="http://www.w3.org/2000/svg">
<path d="M20.1667 34.8333C28.2668 34.8333 34.8333 28.2668 34.8333 20.1667C34.8333 12.0665 28.2668 5.5 20.1667 5.5C12.0665 5.5 5.5 12.0665 5.5 20.1667C5.5 28.2668 12.0665 34.8333 20.1667 34.8333Z" fill="white" stroke="#25282B" stroke-width="3.66667" stroke-linecap="round" stroke-linejoin="round"/>
<path d="M38.5004 38.5009L30.5254 30.5259" stroke="#25282B" stroke-width="3.66667" stroke-linecap="round" stroke-linejoin="round"/>
<path d="M20.166 14.6665V25.6665" stroke="#25282B" stroke-width="3.66667" stroke-linecap="round" stroke-linejoin="round"/>
<path d="M14.666 20.1665H25.666" stroke="#25282B" stroke-width="3.66667" stroke-linecap="round" stroke-linejoin="round"/>
</svg>
