<svg width="41" height="40" viewBox="0 0 41 40" fill="none" xmlns="http://www.w3.org/2000/svg">
<circle cx="20.312" cy="20.1349" r="16.3599" stroke="url(#paint0_linear_102_597)" stroke-width="7"/>
<defs>
<linearGradient id="paint0_linear_102_597" x1="34.9078" y1="34.7314" x2="5.71495" y2="5.53894" gradientUnits="userSpaceOnUse">
<stop stop-color="#BB26FF"/>
<stop offset="0.375" stop-color="#E32682"/>
<stop offset="0.697917" stop-color="#EC6656"/>
<stop offset="1" stop-color="#FFE600"/>
</linearGradient>
</defs>
</svg>
