<svg width="1440" height="33" viewBox="0 0 1440 33" fill="none" xmlns="http://www.w3.org/2000/svg">
<path d="M0 18.3142L3.48716 20.2514C5.07138 19.3277 6.9564 17.5203 9.09935 17.1345C12.905 16.4494 16.7327 14.5027 20.8007 16.4995C22.1129 17.0468 23.5539 17.2125 24.9567 16.9772C27.5048 16.6165 29.9585 16.2208 32.2551 17.8093C32.6056 18.0674 33.0203 18.2252 33.4543 18.2654C36.0852 18.3441 38.7319 18.2248 41.342 18.4845C42.2006 18.5699 42.9657 19.5872 43.8526 19.6346C45.1261 19.7707 46.3908 19.979 47.6404 20.2585C49.9551 20.9017 52.255 21.6213 54.5077 22.4526C55.6307 22.8646 56.6789 23.4557 57.6115 24.2027C58.9161 25.2637 63.9231 25.9022 65.3569 25.1163C66.5372 24.3715 67.8209 23.8033 69.1668 23.4297C71.5859 22.9327 74.0918 22.8628 76.521 22.4025C77.5543 22.2491 78.4979 21.731 79.1797 20.9425C80.2467 19.2476 81.8348 17.9413 83.7074 17.2182C85.58 16.495 87.637 16.3935 89.5722 16.929C90.9389 17.2659 92.5015 16.7355 93.9741 16.7396C98.8408 16.7533 103.645 13.93 108.597 16.4884C109.492 16.8156 110.471 16.8327 111.377 16.5368C113.771 15.8908 116.076 14.8879 118.489 14.3557C119.884 14.0482 121.553 13.5287 122.71 15.346C122.996 15.7944 124.301 15.7907 125.099 15.6907C129.485 15.1414 133.856 14.4722 138.241 13.9069C139.176 13.7358 140.136 13.7638 141.06 13.989C145.175 15.302 149.394 15.0704 153.612 15.0998C154.636 15.1857 155.639 15.4395 156.58 15.8511C160.003 17.0829 163.339 18.62 166.84 19.5512C169.4 20.2322 172.166 20.148 174.842 20.3942C175.448 20.4501 176.276 20.2179 176.634 20.5331C179.438 23.0012 182.946 22.5988 186.242 22.9571C188.502 23.2074 190.778 23.2956 193.051 23.2211C196.919 23.1829 200.782 22.9187 204.619 22.43C207.734 21.9519 210.69 20.4404 213.804 19.9832C216.893 19.5298 219.515 16.3495 223.094 18.4474C223.741 18.8269 224.946 18.1397 225.879 18.1927C226.88 18.3151 227.869 18.5267 228.832 18.8251C229.611 19.1068 230.417 19.311 231.236 19.4348C235.457 19.5791 239.248 18.324 243.171 16.6931C246.083 15.4827 249.766 16.1358 253.103 15.9058C254.621 15.8011 256.128 15.4755 257.646 15.4235C258.816 15.273 260.005 15.3982 261.117 15.7889C263.682 17.0672 266.143 17.8115 269.07 16.9827C271.192 16.3819 273.211 16.2914 275.376 18.033C276.401 18.8584 279.173 17.6875 281.101 17.2076C284.012 16.4827 286.835 15.2288 289.777 14.8701C291.48 14.6626 293.316 15.9774 295.144 16.2258C296.981 16.3656 298.826 16.3549 300.662 16.194C300.889 16.1872 301.159 15.7774 301.325 15.8281C305.268 17.0342 309.002 15.3714 312.5 14.3296C316.844 13.0353 319.019 14.9661 321.364 17.7349C321.611 17.9518 321.906 18.1081 322.224 18.1914C322.543 18.2747 322.877 18.2826 323.199 18.2145C324.446 17.795 325.781 17.7082 327.072 17.9629C328.363 18.2176 329.565 18.8048 330.557 19.6661C333.315 21.9861 335.868 21.39 338.811 20.2694C341.623 19.1551 344.55 18.3567 347.539 17.8888C350.322 17.4971 353.216 17.9601 356.044 17.7815C357.319 17.6632 358.54 17.2109 359.583 16.4706C360.875 15.5126 362.359 14.8438 363.935 14.51C365.51 14.1761 367.139 14.1851 368.71 14.5363C371.257 15.0209 373.987 14.4614 376.596 14.733C380.682 15.1583 384.064 12.7866 387.906 12.1824C390.212 11.8196 392.299 10.0172 394.463 8.82201C396.664 7.60606 398.487 5.13531 401.548 7.35031C402.076 7.63389 402.661 7.79839 403.26 7.83215C403.859 7.86592 404.458 7.76813 405.015 7.54571C409.072 5.70134 413.377 5.87967 417.62 5.75102C420.295 5.7332 422.966 5.96683 425.597 6.4488C426.362 6.57135 426.983 7.59222 427.784 7.67813C429.689 8.33713 431.599 8.98483 433.499 9.66218C434.022 9.94049 434.568 10.1761 435.129 10.3668C437.495 10.7789 439.896 11.0139 442.238 11.5215C443.134 11.7912 443.938 12.3009 444.563 12.995C445.99 14.4463 447.058 14.4637 448.346 12.7498C450.487 9.90182 451.574 10.0286 454.035 12.601C454.939 13.4274 456.083 13.9464 457.303 14.0833C459.679 14.3626 462.072 14.4764 464.464 14.4237C467.211 14.3919 469.955 14.0567 472.702 14.0434C474.26 14.1308 475.81 14.3215 477.342 14.6141C478.985 14.8275 480.678 15.3907 482.261 15.1692C484.904 14.7992 487.367 13.694 489.923 15.8424C490.614 16.4229 492.561 15.7577 493.834 15.3579C495.788 14.7442 496.825 15.5502 497.507 17.2132C498.788 20.334 502.672 21.5956 505.296 19.4503C507.027 18.035 508.319 18.3027 509.968 19.3461C512.961 21.2392 515.746 20.5127 517.763 17.4782C518.042 17.0594 518.345 16.4715 518.753 16.3514C523.455 14.9654 528.109 13.2239 532.918 12.4376C538.377 11.5448 543.779 12.8345 549.148 14.2199C551.272 14.7678 553.684 15.718 556.108 14.6097C556.996 14.2031 558.377 13.8371 559.084 14.2382C562.221 16.0177 565.816 15.9289 568.921 15.5942C574.596 15.0101 580.325 15.1676 585.96 16.0629C587.607 16.3578 589.123 17.1512 590.301 18.3351C590.706 18.8255 591.254 19.1769 591.87 19.3396C592.486 19.5023 593.137 19.4681 593.732 19.2418C595.311 18.8668 597.06 19.0261 598.538 18.4508C600.854 17.6323 603.04 16.4849 605.027 15.0442C606.847 13.6221 608.585 13.2581 610.584 13.9689C613.614 15.0466 616.084 14.783 617.644 11.1421C618.927 12.2639 620.006 13.1791 621.053 14.1285C623.584 16.4232 626.681 15.8861 629.364 15.1079C632.16 14.2966 634.416 13.3645 637.485 14.8288C639.426 15.7549 642.256 14.8657 644.684 14.7359C648.36 14.5394 649.731 15.2849 651.219 18.4678C652.017 20.1732 652.47 20.4102 654.626 19.4342C657.472 18.1458 660.395 15.6165 664.221 17.333C666.574 18.3918 669.095 19.0344 671.669 19.2318C673.19 19.3367 674.831 18.2247 676.362 17.537C679.138 16.2905 681.765 14.5521 684.659 13.7829C686.856 13.1989 689.38 13.6965 691.74 13.9095C693.327 14.0527 694.891 15.4565 696.239 13.1341C696.581 12.5452 698.495 12.8402 699.689 12.7701C700.944 12.6965 702.272 12.9158 703.445 12.58C706.719 11.6429 709.69 11.3925 712.098 14.45C712.969 15.5561 714.064 15.5461 715.574 15.0971C717.859 14.4179 720.361 14.4456 722.775 14.2264C723.552 14.1559 724.614 14.5935 725.085 14.2211C728.668 11.3858 734.102 12.6109 737.202 8.62529C737.613 8.2385 738.115 7.95946 738.661 7.81315C739.208 7.66684 739.782 7.65784 740.333 7.78696C742.737 8.8388 744.883 7.69971 747.132 7.66112C749.631 7.61825 751.088 6.38598 752.51 4.65477C755.208 5.97814 757.168 5.38666 759.423 3.35476C762.342 0.724991 765.909 -1.0845 770.209 0.739076C771.296 1.04366 772.433 1.12801 773.552 0.987158C778.213 0.889522 782.872 0.690773 787.533 0.633942C789.275 0.552392 791.021 0.696305 792.726 1.06208C796.678 2.06931 800.583 1.75478 804.534 1.22101C805.389 1.0406 806.282 1.18228 807.039 1.61871C808.992 3.33031 811.136 5.02587 812.464 7.18196C813.522 8.89926 814.607 9.77059 816.468 9.92265C821.052 10.2972 825.634 10.6953 830.222 11.0033C831.347 11.0048 832.471 10.9172 833.582 10.7414C834.006 10.7018 834.636 10.4137 834.818 10.5939C837.62 13.3637 841.244 11.1365 844.321 12.1807C844.918 12.3003 845.534 12.3009 846.132 12.1825C851.248 11.7255 856.364 11.2559 861.478 10.7735C861.826 10.729 862.161 10.6154 862.464 10.4394C868.288 7.21858 873.269 8.95131 877.873 13.0051C879.817 14.7167 881.842 16.1669 884.678 15.1082C885.103 15.0056 885.552 15.0745 885.925 15.3001C886.782 15.8907 887.79 16.2247 888.83 16.2625C889.871 16.3003 890.901 16.0404 891.798 15.5135C893.153 14.8232 895.073 15.233 897.19 15.1262C898.637 17.3081 900.901 17.4012 903.494 15.8527C903.731 15.7526 903.986 15.7021 904.243 15.7044C904.5 15.7068 904.755 15.7618 904.99 15.8662C906.699 16.6373 907.733 15.882 909.144 14.8637C910.6 13.9775 912.325 13.6383 914.009 13.9073C917.858 14.5062 921.62 15.6394 925.448 16.4068C926.532 16.566 927.638 16.4807 928.684 16.1571C931.576 15.4514 934.424 14.5758 937.213 13.5351C941.754 11.7011 946.289 12.2907 950.966 12.6692C954.069 12.9202 957.28 11.6173 960.418 11.7229C963.095 11.8129 965.336 11.8693 967.59 10.0083C968.697 9.09445 970.725 9.06328 972.343 9.0319C976.542 8.9505 980.876 8.50971 984.889 9.4037C986.708 9.80913 988.605 10.1307 990.439 10.5846C993.638 11.3765 996.339 10.7186 999.074 9.23489C1001.39 7.98082 1003.65 6.90049 1006.37 8.70412C1007.17 9.23369 1008.93 8.71363 1010.08 8.25572C1013.04 7.07816 1015.69 7.34233 1018.59 8.69561C1020.7 9.57437 1022.98 9.99831 1025.26 9.93954C1027.79 9.94397 1030.32 9.32801 1032.83 8.91656C1034.33 8.67226 1035.88 8.63837 1036.25 10.3696C1036.93 13.5585 1039.39 13.2735 1041.65 13.4261C1043.37 13.5421 1045.1 13.4975 1046.83 13.5975C1049.18 13.7342 1051.28 13.5892 1052.65 11.1523C1053.03 10.4806 1054.43 10.1863 1055.4 10.0756C1058.65 9.70611 1061.91 9.49757 1065.16 9.22947C1066.11 9.1509 1067.13 8.8268 1068.01 9.04766C1072.16 10.0887 1075.49 8.8245 1078.74 6.22738C1079.54 5.5938 1081.68 6.58281 1083.19 6.91776C1084.14 7.12942 1085.34 8.0472 1085.94 7.73138C1090.19 5.49643 1094.7 7.2354 1099.03 6.59318C1100.86 6.32153 1102.64 5.66488 1104.47 5.5097C1106.6 5.32929 1108.91 5.02991 1110.87 5.629C1114.9 6.85476 1119.05 8.18058 1122.59 10.3642C1125.08 11.8986 1127.09 11.3344 1129.4 11.0273C1129.72 10.9838 1130.12 10.5202 1130.32 10.611C1134.1 12.3452 1139 9.92144 1142.19 13.7205C1142.76 14.479 1143.54 15.0542 1144.43 15.3743C1145.32 15.6943 1146.29 15.7449 1147.21 15.5197C1149.3 15.1687 1151.51 15.6221 1153.63 15.3613C1155.16 15.1723 1156.6 14.334 1158.12 13.8999C1159.18 13.5961 1160.42 13.0798 1161.37 13.3678C1163.91 14.1448 1165.77 12.7752 1167.76 11.808C1169.95 10.7462 1172.05 9.94531 1174.48 11.1684C1175.19 11.5254 1176.18 11.31 1177.05 11.3829C1179.34 11.4832 1181.63 11.7 1183.9 12.0324C1185.14 12.2787 1186.42 12.2604 1187.65 11.9788C1188.88 11.6972 1190.04 11.1586 1191.05 10.3986C1194.37 8.07692 1195.29 8.22785 1197.49 11.7095C1198.57 13.4273 1199.72 13.848 1201.83 13.4099C1204.25 12.9065 1206.84 13.2786 1209.35 13.1855C1211.95 13.0892 1214.55 12.7585 1217.15 12.7748C1219.74 12.791 1222.33 13.1457 1224.93 13.2799C1226.12 13.3369 1227.32 13.3045 1228.51 13.183C1231.05 12.9318 1233.61 12.2434 1236.13 12.3905C1239.57 12.5917 1242.51 12.0565 1244.91 9.43832C1245.88 8.3784 1246.83 7.72535 1248.54 8.61469C1249.44 9.08556 1251.13 8.6201 1252.22 8.08154C1256.24 6.09273 1260.2 5.23021 1264.45 7.39775C1265.15 7.75287 1266.14 7.53995 1266.99 7.57974C1268.63 7.65579 1270.4 7.34032 1271.87 7.86739C1276.64 9.57679 1281.44 8.98685 1286.23 8.46582C1289.6 8.09989 1292.67 8.56718 1295.38 10.6458C1296.9 11.8189 1298.32 12.2804 1300.12 11.1104C1300.49 10.9046 1300.89 10.7763 1301.31 10.7333C1301.73 10.6903 1302.16 10.7336 1302.56 10.8604C1305.44 11.9615 1307.92 10.9062 1310.47 9.80214C1311.28 9.55266 1312.13 9.50262 1312.97 9.65631C1313.86 9.74876 1314.73 10.2245 1315.61 10.2446C1320.52 10.3557 1325.42 10.3791 1330.33 10.4316C1330.42 10.4326 1330.53 10.3869 1330.59 10.4224C1335.41 13.0674 1338.65 9.26996 1342.56 7.75112C1346.02 6.40647 1349.61 5.63491 1353.59 7.40767C1356.72 8.80214 1360.55 8.57294 1363.98 9.39421C1367.68 10.2568 1371.31 11.3647 1374.86 12.7105C1376.85 13.4776 1378.44 13.8237 1380.54 12.9306C1384.21 11.3709 1388.01 11.787 1392.02 12.1899C1397.12 12.7022 1401.93 15.3396 1407.52 13.498C1411.56 12.1703 1416.24 12.8954 1420.6 12.4314C1422.45 12.2353 1424.23 11.3821 1426.01 10.7377C1426.82 10.4473 1427.54 9.5819 1428.3 9.58562C1432.2 9.60484 1436.1 9.82125 1440 9.96887V25.0949C1439.66 25.1527 1439.3 25.1538 1438.96 25.0982C1434.72 23.6214 1430.93 24.2951 1426.65 25.9441C1422.67 27.4789 1417.87 27.6281 1413.52 27.2784C1407.14 26.6475 1400.81 25.5839 1394.57 24.0948C1391.66 23.4541 1389.31 23.5927 1387.06 25.5471C1386.52 26.0142 1385.64 26.6052 1385.1 26.462C1381.93 25.6264 1378.85 24.6331 1376.43 28.0507C1376.21 28.3546 1375.03 27.9435 1374.3 27.9276C1369.3 27.8192 1364.05 26.7303 1359.38 27.9089C1354.61 29.1094 1351.12 27.9512 1347.36 25.853C1346.01 25.1015 1344.88 23.5014 1342.94 24.6678C1342.77 24.7738 1342.2 24.0857 1341.75 23.9191C1340.18 23.1964 1338.54 22.6435 1336.86 22.2701C1334.05 21.8535 1331.22 21.683 1328.39 21.7607C1326.39 21.7841 1324.42 22.242 1322.61 23.1024C1321.28 23.8019 1320.66 25.7613 1319.38 26.6763C1318.33 27.4223 1316.56 28.0599 1315.47 27.6915C1310.88 26.1404 1306.18 25.9081 1301.43 25.6259C1297.85 25.4135 1294.29 24.7638 1290.74 24.2351C1286.38 23.588 1282.03 22.3149 1277.91 25.1984C1277.34 25.5986 1275.83 25.6995 1275.56 25.3369C1273.39 22.5001 1270.8 23.8519 1268.18 24.1971C1265.88 24.4995 1263.31 24.8138 1261.22 24.0919C1259.07 23.3508 1257.43 20.7332 1255.03 23.5532C1254.91 23.6889 1254.51 23.5484 1254.27 23.6155C1250.41 24.669 1245.98 23.1008 1242.54 26.1442C1242.15 26.3527 1241.7 26.4272 1241.27 26.3561C1237.75 26.2003 1234.23 25.9488 1230.71 25.89C1230.28 25.8959 1229.86 25.9883 1229.46 26.1615C1229.07 26.3347 1228.72 26.5852 1228.42 26.898C1227.39 28.2279 1227.35 31.1438 1224.51 28.8355C1224.42 28.7611 1223.99 29.2112 1223.69 29.2617C1222.84 29.5231 1221.96 29.6103 1221.08 29.5181C1219.5 29.0808 1218.02 28.3026 1216.48 27.7114C1215.65 27.3508 1214.73 27.2159 1213.83 27.3205C1212.92 27.425 1212.06 27.7652 1211.33 28.3067C1204.98 32.5259 1205.76 32.5577 1199.53 29.1407C1199.23 28.9734 1198.95 28.7598 1198.63 28.6071C1195.5 27.0694 1193.48 27.3591 1191.06 29.9123C1189.58 31.4624 1188.5 30.9859 1187.07 29.795C1184.52 27.6712 1181.79 25.8056 1178.27 28.0142C1178.04 28.1297 1177.79 28.1927 1177.54 28.1987C1177.28 28.2047 1177.03 28.1534 1176.8 28.0487C1174.99 26.9863 1173.75 27.7944 1172.46 29.0212C1171.79 29.7146 1170.93 30.195 1169.99 30.4017C1166.77 30.8027 1163.42 29.8491 1160.3 31.3556C1154.91 29.0548 1149.04 29.3265 1143.46 28.1467C1139.02 27.2061 1135.38 28.3518 1131.39 29.6824C1127.92 30.7758 1124.16 30.4578 1120.93 28.798C1118.72 27.8624 1116.38 27.2545 1114 26.9937C1111.44 26.6187 1108.82 26.774 1106.24 26.487C1101.99 26.0122 1097.76 25.3366 1093.51 24.8407C1093.04 24.7861 1092.42 25.2692 1092 25.645C1089.39 27.9921 1087.98 27.9602 1085 25.9694C1083.97 25.2787 1082.5 25.1993 1081.21 24.9429C1080.29 24.7607 1079.34 24.7613 1078.4 24.6593C1077.13 24.5202 1075.78 24.014 1074.59 24.2716C1069.84 25.3029 1065.71 22.5728 1061.18 22.3047C1058.88 22.1681 1056.61 21.4557 1054.3 21.3094C1050.13 21.0446 1045.92 22.1323 1041.81 19.9728C1040.17 19.1095 1037.77 19.5799 1035.71 19.6396C1034.43 19.677 1033.05 20.5105 1031.89 20.234C1029.14 19.5737 1027.06 20.4889 1024.87 21.976C1022.09 23.8534 1021.01 23.4267 1018.32 21.0799C1017.22 20.2224 1015.87 19.7603 1014.47 19.7689C1010.26 19.8234 1006.05 20.3476 1001.84 20.3689C999.368 20.3815 996.896 19.654 994.409 19.5308C993.424 19.6153 992.495 20.0223 991.766 20.6885C990.112 22.0207 988.572 23.1927 986.278 22.0087C985.942 21.8846 985.581 21.8446 985.226 21.8924C984.871 21.9401 984.533 22.0741 984.243 22.2826C982.566 24.1236 980.726 23.8459 978.746 23.0509C975.444 21.7253 972.061 20.9924 968.545 22.0538C965.649 22.9283 962.813 24.001 959.912 24.8568C958.757 25.1974 957.408 24.9576 956.306 25.3867C953.227 26.5863 950.259 28.0687 947.191 29.3017C944.784 30.2695 942.607 29.6474 940.2 28.6139C938.11 27.7164 935.49 27.8249 933.12 27.9151C932.341 27.9447 931.627 29.3219 930.857 30.0554C930.547 30.4337 930.151 30.7324 929.701 30.9265C926.35 31.7867 922.82 31.6548 919.542 30.5471C918.851 30.3156 917.915 30.6951 917.121 30.9026C915.951 31.3367 914.751 31.6881 913.53 31.954C911.883 32.1231 910.223 32.1218 908.576 31.9501C907.27 31.7381 905.979 31.4402 904.712 31.0584C903.379 30.7465 902.035 30.1722 900.708 30.2053C898.055 30.2715 895.304 31.2632 892.785 30.8111C888.016 29.9553 883.426 28.1417 878.675 27.1372C875.93 26.557 873.014 26.781 870.176 26.6412C868.979 26.5822 867.154 26.9838 866.698 26.3732C865.034 24.145 862.715 24.4253 860.499 24.0367C857.863 23.5743 854.704 23.6721 852.779 22.2109C850.576 20.5389 848.591 21.101 846.48 20.9943C844.131 20.834 841.775 20.8534 839.429 21.0522C836.261 21.367 833.116 21.8731 830.009 22.5679C827.302 23.1853 824.701 24.4328 821.956 22.7618C821.802 22.6774 821.633 22.6261 821.457 22.6113C821.282 22.5966 821.106 22.6187 820.94 22.6762C816.303 24.8559 812.513 21.1778 808.252 20.9005C805.205 20.7023 801.749 19.8972 799.195 21.0062C796.958 22.1084 794.542 22.8038 792.06 23.0596C790.026 23.1846 787.433 23.779 786.396 21.5102C784.459 17.2709 780.959 17.2595 777.204 17.2991C774.922 17.3231 772.635 17.1572 770.356 16.9961C766.395 16.7161 762.447 16.299 760.169 20.7265C759.949 21.1549 758.727 21.1778 757.963 21.2041C755.466 21.2898 752.62 20.5458 750.551 21.5017C747.776 22.7262 744.765 23.3294 741.731 23.2687C737.294 23.328 732.857 23.4387 728.421 23.552C727.902 23.4979 727.378 23.6052 726.922 23.859C724.816 25.7588 722.602 25.1297 720.292 24.3776C718.775 23.8837 717.289 23.6771 716.101 25.3288C714.239 27.9193 711.005 28.6012 707.984 27.6369C705.338 26.7926 702.644 25.456 699.753 27.2091C699.095 27.6088 698.036 27.307 697.179 27.441C695.746 27.5443 694.333 27.8334 692.975 28.3008C690.281 29.5568 687.204 29.7276 684.386 28.7775C683.007 28.2708 681.538 28.0525 680.07 28.1363C678.602 28.2202 677.167 28.6043 675.855 29.2647C673.347 30.4593 670.562 31.6186 667.827 29.3081C667.341 28.8977 666.309 29.0012 665.546 29.067C662.267 29.3498 658.995 30.0075 655.836 28.3314C655.097 28.0581 654.286 28.0458 653.539 28.2966C651.282 28.9219 649.036 29.6111 646.84 30.4204C642.633 31.8557 638.051 31.7595 633.909 30.1487C629.747 28.5646 626.207 28.905 622.586 30.0425C618.11 31.4488 613.811 33.1921 608.968 32.5235C607.98 32.387 606.918 32.9027 605.888 32.9177C603.7 33.0703 601.503 33.0106 599.328 32.7396C595.945 32.1185 592.852 29.7874 589.119 31.2805C588.782 31.3744 588.428 31.3913 588.083 31.3299C587.738 31.2686 587.411 31.1306 587.127 30.9262C585.055 29.1354 582.967 30.3588 581.362 31.2661C579.588 32.2696 578.773 31.7045 577.529 30.6762C576.698 29.9982 575.679 29.5896 574.607 29.5055C570.029 29.3116 565.439 29.3673 560.862 29.1579C559.932 28.9956 559.099 28.4856 558.534 27.7322C558.028 27.0094 557.286 26.4838 556.435 26.2452C555.584 26.0067 554.676 26.0699 553.866 26.4241C549.515 27.956 545.572 26.1811 541.893 24.5565C539.597 23.4831 537.003 23.2149 534.535 23.7953C532.066 24.3758 529.867 25.7709 528.295 27.7539C525.324 31.3297 523.402 33.3908 518.111 30.2778C517.018 29.8037 515.816 29.6339 514.634 29.7865C510.845 29.9699 507.066 30.3758 503.276 30.541C500.447 30.6644 497.604 30.4708 494.771 30.5653C492.871 30.6288 491.001 31.1231 489.522 29.2621C489.166 28.8131 488.059 28.8784 487.291 28.8472C485.837 28.788 484.378 28.83 482.836 28.83L482.515 26.5633C479.242 25.2042 476.245 23.166 472.707 25.1024C472.472 25.231 472.045 24.9818 471.703 24.9504C470.027 24.6945 468.335 24.5598 466.64 24.5473C462.077 24.7955 457.591 24.9526 453.501 22.3299C452.871 21.9259 451.852 22.0288 451.017 22.0529C447.448 22.1562 443.806 23.6818 440.365 21.2958C439.88 20.959 438.892 21.3254 438.139 21.3884C436.124 21.557 434.112 21.7638 432.095 21.9048C430.604 22.009 429.008 21.7233 427.634 22.1579C424.704 23.0841 421.942 24.5404 419.007 25.444C416.78 26.0604 414.493 26.4409 412.186 26.5791C411.316 26.5269 410.495 26.1545 409.885 25.5341C409.237 24.8128 408.673 24.0203 408.205 23.1717C407.007 23.402 405.798 23.572 404.583 23.6808C400.524 23.846 396.463 23.9641 392.402 24.0098C392.103 23.982 391.811 23.8953 391.546 23.7545C391.28 23.6138 391.045 23.4218 390.854 23.1899C389.181 21.0866 387.435 20.3366 385.312 22.579C385.257 22.6372 385.148 22.641 385.077 22.6892C378.758 26.9923 371.099 24.9702 364.309 27.0506C364.238 27.0723 364.143 27.0063 364.058 26.9949C361.051 26.596 358.022 25.7728 355.044 25.9305C352.469 26.0669 349.7 25.8185 347.356 28.0798C344.426 30.9071 340.37 31.1123 336.425 31.0995C335.434 31.0962 334.258 30.9757 333.482 31.436C330.601 33.1439 326.379 33.0948 324.358 30.546C321.666 27.1507 318.294 27.1186 314.493 27.2786C312.247 27.3732 309.618 27.1093 307.791 25.9879C306.216 24.9544 304.336 24.4824 302.457 24.6488C301.179 24.736 299.894 24.7166 298.613 24.7495C293.457 24.8817 288.3 24.9614 283.148 25.1739C280.841 25.269 278.546 25.8081 276.245 25.8147C274.548 25.8196 272.767 24.8188 271.171 25.0981C268.328 25.5954 265.862 25.7572 262.904 24.7829C258.985 23.492 254.625 23.4912 250.442 23.044C245.643 22.5308 240.715 24.101 235.98 22.1706C235.645 22.0339 235.039 22.424 234.613 22.6641C233.476 23.4535 232.275 24.1469 231.023 24.737C228.779 25.5369 226.213 26.9649 224.181 26.4778C221.076 25.7333 218.425 26.4928 215.546 26.8968C212.539 27.3187 209.8 29.4628 206.566 28.3313C205.382 27.9167 204.153 26.9103 203.067 27.0584C198.516 27.6788 194.11 28.8037 189.43 27.2375C184.631 25.6315 179.442 27.0466 174.368 25.1035C170.647 23.6783 165.886 24.7962 161.603 25.0341C159.146 25.1706 156.729 26.055 154.273 26.172C150.401 26.3565 146.511 26.2071 142.629 26.1443C139.787 26.0983 136.946 25.985 134.105 25.8649C129.584 25.6738 125.064 25.4348 120.541 25.2684C120.056 25.2505 119.569 25.6643 119.063 25.7299C118.137 25.8932 117.195 25.9481 116.257 25.8934C112.77 25.5194 109.29 25.07 105.814 24.6048C105.156 24.4768 104.512 24.2835 103.892 24.0279C103.087 23.6198 102.234 23.3151 101.352 23.121C94.0773 22.6241 87.1495 23.6188 81.091 28.0956C80.8042 28.2896 80.467 28.3963 80.1204 28.4029C72.9128 28.5659 65.7042 28.8074 58.4973 28.7677C57.1591 28.7604 55.8446 27.5646 54.4876 26.9916C53.1383 26.4218 51.7779 25.6185 50.3716 25.4963C47.4271 25.2403 44.4415 25.477 41.4892 25.2744C40.3454 25.0624 39.2537 24.6319 38.2742 24.0067C37.1448 23.4294 35.8934 21.9508 35.0385 22.1734C31.0688 23.2069 26.6266 20.7835 22.9691 23.8536C22.6452 24.1254 21.9455 24.0436 21.4351 23.989C18.8601 23.7136 16.2866 23.1833 13.964 25.0105C13.6107 25.2884 12.7999 24.9748 12.2002 24.9609C11.6264 24.8989 11.0471 24.9101 10.4762 24.9944C9.04281 25.3425 7.65769 25.9499 6.21014 26.1633C4.16042 26.4655 2.07194 26.5068 1.55231e-05 26.6596L0 18.3142Z" fill="#159CD8"/>
</svg>
